<?xml version="1.0" encoding="UTF-8" standalone="no"?>
<svg
   xmlns:dc="http://purl.org/dc/elements/1.1/"
   xmlns:cc="http://creativecommons.org/ns#"
   xmlns:rdf="http://www.w3.org/1999/02/22-rdf-syntax-ns#"
   xmlns:svg="http://www.w3.org/2000/svg"
   xmlns="http://www.w3.org/2000/svg"
   viewBox="0 0 770.56 244.16"
   height="244.16"
   width="770.56"
   xml:space="preserve"
   id="svg2"
   version="1.1"><metadata
     id="metadata8"><rdf:RDF><cc:Work
         rdf:about=""><dc:format>image/svg+xml</dc:format><dc:type
           rdf:resource="http://purl.org/dc/dcmitype/StillImage" /></cc:Work></rdf:RDF></metadata><defs
     id="defs6"><clipPath
       id="clipPath18"
       clipPathUnits="userSpaceOnUse"><path
         style="clip-rule:evenodd"
         id="path16"
         d="M 0,0 H 2408.3333 V 761.78912 H 0 Z" /></clipPath><clipPath
       id="clipPath30"
       clipPathUnits="userSpaceOnUse"><path
         style="clip-rule:evenodd"
         id="path28"
         d="M 0,0 H 2408.3333 V 758.78998 H 0 Z" /></clipPath></defs><g
     transform="matrix(0.31999998,0,0,0.31999998,0,6.104e-6)"
     id="g10"><g
       id="g12"><g
         clip-path="url(#clipPath18)"
         id="g14"><g
           transform="scale(2.9991698)"
           id="g20"><path
             id="path22"
             style="fill:#ffffff;fill-opacity:1;fill-rule:nonzero;stroke:none"
             d="M 0,0 H 803 V 254 H 0 Z" /></g></g></g><g
       id="g24"><g
         clip-path="url(#clipPath30)"
         id="g26"><g
           transform="matrix(2.9991698,0,0,2.9991698,1.4995849,1.4995849)"
           id="g32"><path
             id="path34"
             style="fill:none;stroke:#e30613;stroke-width:1;stroke-linecap:butt;stroke-linejoin:miter;stroke-miterlimit:10;stroke-dasharray:none;stroke-opacity:1"
             d="m 89.129997,40.48 -0.03,15.52 H 104.63" /><path
             id="path36"
             style="fill:#e30613;fill-opacity:1;fill-rule:nonzero;stroke:none"
             d="m 109.88,56 -7,3.5 1.75,-3.5 -1.75,-3.5 z" /><path
             id="path38"
             style="fill:none;stroke:#e30613;stroke-width:1;stroke-linecap:butt;stroke-linejoin:miter;stroke-miterlimit:10;stroke-dasharray:none;stroke-opacity:1"
             d="m 109.88,56 -7,3.5 1.75,-3.5 -1.75,-3.5 z" /></g><g
           transform="scale(2.9991698)"
           id="g40"><text
             id="text44"
             style="font-variant:normal;font-weight:normal;font-size:14px;font-family:ArialMT;-inkscape-font-specification:ArialMT;writing-mode:lr-tb;fill:#306278;fill-opacity:1;fill-rule:nonzero;stroke:none"
             transform="translate(89.546875,26)"><tspan
               id="tspan42"
               y="0"
               x="0 10.110352 17.896484 21.786133 26.448242 38.110352 45.896484 52.896484 59.896484 67.682617 75.46875 83.254883 94.916992 102.70312 110.48926 114.37891 122.16504 129.95117 137.7373 141.62695 145.5166 153.30273 157.19238 164.97852 169.64062 176.64062 184.42676 192.21289 196.10254 199.21289 206.99902 214.78516 222.57129 230.35742 234.24707 242.0332 245.14355 252.14355 259.92969 263.81934 267.70898 275.49512 283.28125 291.06738 298.85352 303.51562 310.51562 320.62598 328.41211 332.30176 341.63965 344.75 352.53613 359.53613 366.53613 369.64648 373.53613 376.64648 383.64648 386.75684 394.54297 399.20508 406.99121 414.77734 419.43945 423.3291 427.99121 435.77734 443.56348 448.22559">C0 (Massnahmen und Interventionen nicht anderswo Klassifizierbar (00))</tspan></text>
<text
             id="text48"
             style="font-variant:normal;font-weight:normal;font-size:14px;font-family:ArialMT;-inkscape-font-specification:ArialMT;writing-mode:lr-tb;fill:#306278;fill-opacity:1;fill-rule:nonzero;stroke:none"
             transform="translate(113,61)"><tspan
               id="tspan46"
               y="0"
               x="0 7.7861328 15.572266 19.461914 24.124023 35.786133 43.572266 50.572266 57.572266 65.358398 73.144531 80.930664 92.592773 100.37891 108.16504 112.05469 119.84082 127.62695 135.41309 139.30273 143.19238 150.97852 154.86816 162.6543 167.31641 174.31641 182.10254 189.88867 193.77832 196.88867 204.6748 212.46094 220.24707 228.0332 231.92285 239.70898 242.81934 249.81934 257.60547 261.49512 265.38477 273.1709 280.95703 288.74316 296.5293 301.19141 308.19141 318.30176 326.08789 329.97754 336.97754 340.08789 347.87402 354.87402 361.87402 364.98438 368.87402 371.98438 378.98438 382.09473 389.88086 394.54297 402.3291 410.11523 414.77734">00 (Massnahmen und Interventionen nicht anderswo klassifizierbar)</tspan></text>
<text
             id="text52"
             style="font-variant:normal;font-weight:normal;font-size:14px;font-family:ArialMT;-inkscape-font-specification:ArialMT;writing-mode:lr-tb;fill:#306278;fill-opacity:1;fill-rule:nonzero;stroke:none"
             transform="translate(153,101)"><tspan
               id="tspan50"
               y="0"
               x="0 7.7861328 15.572266 19.461914 27.248047 31.137695 35.799805 45.137695 52.923828 60.709961 65.37207 77.03418 84.820312 91.820312 99.606445 107.39258">00.1 (Pharmakon)</tspan></text>
<text
             id="text56"
             style="font-variant:normal;font-weight:normal;font-size:14px;font-family:ArialMT;-inkscape-font-specification:ArialMT;writing-mode:lr-tb;fill:#306278;fill-opacity:1;fill-rule:nonzero;stroke:none"
             transform="translate(193,141)"><tspan
               id="tspan54"
               y="0"
               x="0 7.7861328 15.572266 19.461914 27.248047 35.03418 38.923828 43.585938 47.475586 55.261719 63.047852 70.833984 73.944336 81.730469 85.620117 88.730469 96.516602 104.30273 108.19238 115.19238 122.97852 130.76465 134.6543 143.99219 147.88184 150.99219 157.99219 164.99219 171.99219 175.88184 183.66797 187.30469 191.19434 202.85645 210.64258 218.42871 226.21484 233.21484 236.3252 244.11133 248.00098 251.89062 259.67676 267.46289 274.46289 282.24902 286.13867 296.24902 304.03516 311.82129 319.60742 324.26953 328.15918 335.94531 343.73145 348.39355 352.2832 361.62109 369.40723 377.19336 384.97949 392.76562 400.55176 403.66211 411.44824 419.23438 427.02051">00.12 (Inhalation von Stickstoffmonoxid, nach Dauer der Behandlung)</tspan></text>
<text
             id="text60"
             style="font-variant:normal;font-weight:normal;font-size:14px;font-family:ArialMT;-inkscape-font-specification:ArialMT;writing-mode:lr-tb;fill:#306278;fill-opacity:1;fill-rule:nonzero;stroke:none"
             transform="translate(233,181)"><tspan
               id="tspan58"
               y="0"
               x="0 7.7861328 15.572266 19.461914 27.248047 35.03418 38.923828 46.709961 50.599609 55.261719 65.37207 73.158203 77.047852 84.833984 87.944336 91.054688 94.944336 102.73047 110.5166 115.17871 119.06836 128.40625 136.19238 143.97852 150.97852 158.76465 162.6543 170.44043 178.22656 186.0127 190.6748 193.78516 201.57129 205.46094 213.24707 221.0332 224.92285 232.70898 240.49512">00.12.0 (Detail der Subkategorie 00.12)</tspan></text>
<text
             id="text64"
             style="font-variant:normal;font-weight:normal;font-size:14px;font-family:ArialMT;-inkscape-font-specification:ArialMT;writing-mode:lr-tb;fill:#306278;fill-opacity:1;fill-rule:nonzero;stroke:none"
             transform="translate(273,221)"><tspan
               id="tspan62"
               y="0"
               x="0 7.7861328 15.572266 19.461914 27.248047 35.03418 38.923828 46.709961 54.496094 58.385742 63.047852 66.9375 74.723633 82.509766 90.295898 93.40625 101.19238 105.08203 108.19238 115.97852 123.76465 127.6543 134.6543 142.44043 150.22656 154.11621 163.4541 167.34375 170.4541 177.4541 184.4541 191.4541 195.34375 203.12988 206.7666 210.65625 222.31836 230.10449 237.89062 245.67676 252.67676 255.78711 263.57324 267.46289 271.35254 281.46289 289.24902 297.03516 304.82129 309.4834 313.37305 321.15918 328.94531">00.12.00 (Inhalation von Stickstoffmonoxid, Dauer der</tspan></text>
<text
             id="text68"
             style="font-variant:normal;font-weight:normal;font-size:14px;font-family:ArialMT;-inkscape-font-specification:ArialMT;writing-mode:lr-tb;fill:#306278;fill-opacity:1;fill-rule:nonzero;stroke:none"
             transform="translate(273,238)"><tspan
               id="tspan66"
               y="0"
               x="0 9.3378906 17.124023 24.910156 32.696289 40.482422 48.268555 51.378906 59.165039 66.951172 74.737305 78.626953 86.413086 89.523438 96.523438 100.41309 108.19922 115.98535 119.875 127.66113 132.32324 136.21289 143.99902 151.78516 155.6748 165.0127 168.90234 176.68848 184.47461 192.26074 200.04688 207.83301">Behandlung bis unter 48 Stunden)</tspan></text>
<text
             id="text72"
             style="font-variant:normal;font-weight:normal;font-size:14px;font-family:ArialMT;-inkscape-font-specification:ArialMT;writing-mode:lr-tb;fill:#646363;fill-opacity:1;fill-rule:nonzero;stroke:none"
             transform="translate(15.765625,26)"><tspan
               id="tspan70"
               y="0"
               x="0 3.1103516 10.896484 17.896484 25.682617 28.792969 32.682617">level 1</tspan></text>
<text
             id="text76"
             style="font-variant:normal;font-weight:normal;font-size:14px;font-family:ArialMT;-inkscape-font-specification:ArialMT;writing-mode:lr-tb;fill:#646363;fill-opacity:1;fill-rule:nonzero;stroke:none"
             transform="translate(15.765625,61)"><tspan
               id="tspan74"
               y="0"
               x="0 3.1103516 10.896484 17.896484 25.682617 28.792969 32.682617">level 2</tspan></text>
<text
             id="text80"
             style="font-variant:normal;font-weight:normal;font-size:14px;font-family:ArialMT;-inkscape-font-specification:ArialMT;writing-mode:lr-tb;fill:#646363;fill-opacity:1;fill-rule:nonzero;stroke:none"
             transform="translate(15.765625,101)"><tspan
               id="tspan78"
               y="0"
               x="0 3.1103516 10.896484 17.896484 25.682617 28.792969 32.682617">level 3</tspan></text>
<text
             id="text84"
             style="font-variant:normal;font-weight:normal;font-size:14px;font-family:ArialMT;-inkscape-font-specification:ArialMT;writing-mode:lr-tb;fill:#646363;fill-opacity:1;fill-rule:nonzero;stroke:none"
             transform="translate(15.765625,141)"><tspan
               id="tspan82"
               y="0"
               x="0 3.1103516 10.896484 17.896484 25.682617 28.792969 32.682617">level 4</tspan></text>
<text
             id="text88"
             style="font-variant:normal;font-weight:normal;font-size:14px;font-family:ArialMT;-inkscape-font-specification:ArialMT;writing-mode:lr-tb;fill:#646363;fill-opacity:1;fill-rule:nonzero;stroke:none"
             transform="translate(15.765625,181)"><tspan
               id="tspan86"
               y="0"
               x="0 3.1103516 10.896484 17.896484 25.682617 28.792969 32.682617">level 5</tspan></text>
<text
             id="text92"
             style="font-variant:normal;font-weight:normal;font-size:14px;font-family:ArialMT;-inkscape-font-specification:ArialMT;writing-mode:lr-tb;fill:#646363;fill-opacity:1;fill-rule:nonzero;stroke:none"
             transform="translate(15.765625,226)"><tspan
               id="tspan90"
               y="0"
               x="0 3.1103516 10.896484 17.896484 25.682617 28.792969 32.682617">level 6</tspan></text>
</g><g
           transform="matrix(2.9991698,0,0,2.9991698,1.4995849,1.4995849)"
           id="g94"><path
             id="path96"
             style="fill:none;stroke:#e30613;stroke-width:1;stroke-linecap:butt;stroke-linejoin:miter;stroke-miterlimit:10;stroke-dasharray:none;stroke-opacity:1"
             d="M 128.98,81 129,95 h 15.63" /><path
             id="path98"
             style="fill:#e30613;fill-opacity:1;fill-rule:nonzero;stroke:none"
             d="m 149.88,95 -7,3.5 1.75,-3.5 -1.75,-3.5 z" /><path
             id="path100"
             style="fill:none;stroke:#e30613;stroke-width:1;stroke-linecap:butt;stroke-linejoin:miter;stroke-miterlimit:10;stroke-dasharray:none;stroke-opacity:1"
             d="m 149.88,95 -7,3.5 1.75,-3.5 -1.75,-3.5 z" /><path
             id="path102"
             style="fill:none;stroke:#e30613;stroke-width:1;stroke-linecap:butt;stroke-linejoin:miter;stroke-miterlimit:10;stroke-dasharray:none;stroke-opacity:1"
             d="m 168.98,121 0.02,14 h 15.63" /><path
             id="path104"
             style="fill:#e30613;fill-opacity:1;fill-rule:nonzero;stroke:none"
             d="m 189.88,135 -7,3.5 1.75,-3.5 -1.75,-3.5 z" /><path
             id="path106"
             style="fill:none;stroke:#e30613;stroke-width:1;stroke-linecap:butt;stroke-linejoin:miter;stroke-miterlimit:10;stroke-dasharray:none;stroke-opacity:1"
             d="m 189.88,135 -7,3.5 1.75,-3.5 -1.75,-3.5 z" /><path
             id="path108"
             style="fill:none;stroke:#e30613;stroke-width:1;stroke-linecap:butt;stroke-linejoin:miter;stroke-miterlimit:10;stroke-dasharray:none;stroke-opacity:1"
             d="m 208.98,161 0.02,14 h 15.63" /><path
             id="path110"
             style="fill:#e30613;fill-opacity:1;fill-rule:nonzero;stroke:none"
             d="m 229.88,175 -7,3.5 1.75,-3.5 -1.75,-3.5 z" /><path
             id="path112"
             style="fill:none;stroke:#e30613;stroke-width:1;stroke-linecap:butt;stroke-linejoin:miter;stroke-miterlimit:10;stroke-dasharray:none;stroke-opacity:1"
             d="m 229.88,175 -7,3.5 1.75,-3.5 -1.75,-3.5 z" /><path
             id="path114"
             style="fill:none;stroke:#e30613;stroke-width:1;stroke-linecap:butt;stroke-linejoin:miter;stroke-miterlimit:10;stroke-dasharray:none;stroke-opacity:1"
             d="m 248.98,201 0.02,14 h 15.63" /><path
             id="path116"
             style="fill:#e30613;fill-opacity:1;fill-rule:nonzero;stroke:none"
             d="m 269.88,215 -7,3.5 1.75,-3.5 -1.75,-3.5 z" /><path
             id="path118"
             style="fill:none;stroke:#e30613;stroke-width:1;stroke-linecap:butt;stroke-linejoin:miter;stroke-miterlimit:10;stroke-dasharray:none;stroke-opacity:1"
             d="m 269.88,215 -7,3.5 1.75,-3.5 -1.75,-3.5 z" /><path
             id="path120"
             style="fill:#e30613;fill-opacity:1;fill-rule:nonzero;stroke:none"
             d="m 83,21 c -8e-6,0.464127 -0.08881,0.910589 -0.266434,1.339388 -0.177612,0.4288 -0.430511,0.807295 -0.758697,1.135485 -0.328186,0.328188 -0.706681,0.581087 -1.135483,0.758701 C 80.410583,24.41119 79.964119,24.499998 79.5,24.5 79.035866,24.499998 78.589401,24.41119 78.160606,24.233574 77.731804,24.05596 77.35331,23.803061 77.025124,23.474873 76.69693,23.146683 76.444023,22.768188 76.266411,22.339388 76.088799,21.910589 75.999992,21.464127 76,21 c -8e-6,-0.46413 0.0888,-0.910595 0.266411,-1.339396 0.177612,-0.428798 0.430519,-0.807291 0.758713,-1.135478 0.328186,-0.32819 0.70668,-0.581091 1.135482,-0.758706 C 78.589401,17.588806 79.035866,17.5 79.5,17.5 c 0.464119,0 0.910583,0.08881 1.339386,0.26642 0.428802,0.177615 0.807297,0.430516 1.135483,0.758706 0.328186,0.328187 0.581085,0.70668 0.758697,1.135478 C 82.911186,20.089405 82.999992,20.53587 83,21 Z" /><path
             id="path122"
             style="fill:none;stroke:#e30613;stroke-width:1;stroke-linecap:butt;stroke-linejoin:miter;stroke-miterlimit:10;stroke-dasharray:none;stroke-opacity:1"
             d="m 83,21 c -8e-6,0.464127 -0.08881,0.910589 -0.266434,1.339388 -0.177612,0.4288 -0.430511,0.807295 -0.758697,1.135485 -0.328186,0.328188 -0.706681,0.581087 -1.135483,0.758701 C 80.410583,24.41119 79.964119,24.499998 79.5,24.5 79.035866,24.499998 78.589401,24.41119 78.160606,24.233574 77.731804,24.05596 77.35331,23.803061 77.025124,23.474873 76.69693,23.146683 76.444023,22.768188 76.266411,22.339388 76.088799,21.910589 75.999992,21.464127 76,21 c -8e-6,-0.46413 0.0888,-0.910595 0.266411,-1.339396 0.177612,-0.428798 0.430519,-0.807291 0.758713,-1.135478 0.328186,-0.32819 0.70668,-0.581091 1.135482,-0.758706 C 78.589401,17.588806 79.035866,17.5 79.5,17.5 c 0.464119,0 0.910583,0.08881 1.339386,0.26642 0.428802,0.177615 0.807297,0.430516 1.135483,0.758706 0.328186,0.328187 0.581085,0.70668 0.758697,1.135478 C 82.911186,20.089405 82.999992,20.53587 83,21 Z" /></g></g></g></g></svg>